<?xml version="1.0" standalone="no"?>
<!DOCTYPE svg PUBLIC "-//W3C//DTD SVG 1.1//EN" "http://www.w3.org/Graphics/SVG/1.1/DTD/svg11.dtd" >
<!--
2013-9-30: Created.
-->
<svg>
<metadata>
Created by iconfont
</metadata>
<defs>

<font id="iconfont" horiz-adv-x="1024" >
  <font-face
    font-family="iconfont"
    font-weight="500"
    font-stretch="normal"
    units-per-em="1024"
    ascent="896"
    descent="-128"
  />
    <missing-glyph />
    
    <glyph glyph-name="zhuye" unicode="&#58952;" d="M867.2672 334.208c-81.216 66.496-162.048 133.376-243.072 200.128C586.9472 564.992 549.6992 595.648 512.3872 626.432c-3.264-2.368-6.016-4.288-8.64-6.4C387.2032 523.904 270.5312 427.84 154.2432 331.392 149.9552 327.808 146.9472 320.064 146.8832 314.24c-0.448-97.344-0.384-194.752-0.256-292.096 0-30.208 15.936-45.824 46.464-45.824 74.944-0.064 149.824 0 224.768 0 4.032 0 8.064 0.448 13.184 0.768 0 81.344 0 161.6 0 242.432 54.336 0 107.52 0 161.856 0 0-80.576 0-160.896 0-243.264 6.144 0 10.24 0 14.4 0 74.112 0 148.16 0 222.272 0 32.768 0 47.936 15.232 47.936 48.32 0.064 95.68-0.128 191.36 0.192 286.976C877.7632 321.408 874.8832 327.872 867.2672 334.208zM1009.7312 400.192c-38.08 31.68-75.776 63.808-114.56 94.592-13.184 10.432-18.24 21.12-18.048 38.208 1.024 76.608 0.512 153.28 0.448 229.888 0 18.624-5.888 26.176-21.504 26.304-39.808 0.32-79.616 0.32-119.424 0-14.016-0.128-20.8-7.04-21.312-21.312-0.512-12.672-0.192-25.408-0.192-38.08 0-27.008 0-54.016 0-84.032-6.4 5.12-9.984 7.936-13.504 10.88-44.16 36.928-88.32 73.856-132.544 110.784C530.2432 799.744 493.9552 799.808 455.0432 767.424 374.0192 700.032 293.0592 632.512 212.0352 565.056 146.3712 510.336 80.7072 455.552 14.9792 400.832-4.0288 384.96-4.6688 376.96 11.5232 357.76c9.28-11.008 18.432-22.08 27.712-33.088 13.888-16.448 23.04-17.28 39.552-3.456 108.864 90.816 217.728 181.76 326.656 272.576C440.7712 623.296 476.2272 652.8 512.0032 682.624c35.712-29.76 70.848-59.008 105.92-88.256 109.184-91.136 218.432-182.272 327.616-273.408 16.32-13.632 25.408-12.672 39.424 3.968 9.536 11.328 19.008 22.72 28.544 34.048C1028.4192 376.704 1027.6512 385.28 1009.7312 400.192z"  horiz-adv-x="1025" />

    
    <glyph glyph-name="wode" unicode="&#58928;" d="M871.812879 75.967438c0-15.286148-12.392238-27.678386-27.678386-27.678386s-27.678386 12.392238-27.678386 27.678386c0 3.273557 0 8.120958 0 14.983249 0 69.394487-141.16816 167.460989-303.301817 167.460989-128.897695 0-305.612443-82.659605-305.612443-164.698063 0-8.05956 0-14.471596 0-17.745153 0-15.286148-12.392238-27.678386-27.678386-27.678386-15.285125 0-27.678386 12.392238-27.678386 27.678386 0 3.273557 0 16.968463 0 34.828226 0 41.467437 61.594847 148.141992 229.826386 187.776687-60.754712 41.537022-100.662631 111.331621-100.662631 190.483332 0 127.381156 103.264898 230.655264 230.649124 230.655264 127.386272 0 230.649124-103.274108 230.649124-230.655264 0-77.837786-38.671765-146.525168-97.730858-188.292434 170.040744-38.058804 226.894613-150.176324 226.894613-189.966563C871.812879 92.762963 871.812879 79.240995 871.812879 75.967438zM687.293375 489.060801c0 96.807836-78.483492 175.293375-175.293375 175.293375s-175.293375-78.485539-175.293375-175.293375c0-96.821139 78.483492-175.293375 175.293375-175.293375S687.293375 392.239662 687.293375 489.060801z"  horiz-adv-x="1024" />

    
    <glyph glyph-name="gouwuche" unicode="&#59110;" d="M935.488 716.096c18.752-19.744 27.2-47.264 23.744-76.096l-50.336-268.448c-5.504-41.76-45.824-75.584-91.872-75.584l-430.88-29.568c-0.832-0.224-1.792-0.224-2.496-0.224-16.576 0-30.656 11.968-31.84 27.616-1.216 16.512 12.032 30.624 29.44 31.936l433.152 29.792c15.872 0.128 29.216 11.744 31.04 25.024l50.336 268.416c1.184 10.048-1.792 21.056-8.128 27.776a20.8 20.8 0 0 1-15.392 6.464H319.456c-17.664 0-32 13.376-32 29.76 0 16.416 14.464 29.792 32 29.792h552.928c24.448 0 46.752-9.44 63.104-26.656z m-73.28-509.504c14.528 0 32-15.232 32-31.872 0-16.384-14.208-32-32-32H343.68c-46.08 0-86.496 38.144-92.096 81.472L197.408 579.8399999999999l-30.784 166.272C164.704 760.704 150.496 768 136.64 768H95.968C78.304 768 64 785.824 64 802.24 64 818.56 78.432 832 96 832h40.64c46.528 0 87.52-29.76 94.08-85.888l29.76-166.272 54.336-347.776c1.792-13.856 15.264-25.472 28.736-25.472h518.688zM320 0s0-35.36 0 0a64 64 0 1 0 128 0 64 64 0 0 0-128 0z m384 0s0-35.36 0 0a64 64 0 1 0 128 0 64 64 0 0 0-128 0z"  horiz-adv-x="1024" />

    
    <glyph glyph-name="xingxing" unicode="&#58950;" d="M733.653-22.642c-12.368 0-25.232 2.968-36.116 8.905l-184.043 96.474-183.548-96.969c-11.379-5.937-23.747-8.905-36.611-8.905-15.337 0-30.674 4.453-43.042 12.863-23.747 16.326-36.116 44.032-31.169 71.737l35.621 209.274L99.894 422.128c-20.284 19.79-27.211 47.99-17.811 74.211 9.4 26.221 32.158 44.526 60.358 48.484L353.2 575.497l91.527 186.022C457.095 786.75 484.305 803.076 513 803.076c29.19 0 55.905-16.326 68.274-41.558L672.8 575.497l210.758-30.674c28.2-3.958 51.453-22.758 60.358-48.484 9.4-26.221 2.474-54.916-17.811-74.705L771.253 270.738l35.621-209.274c4.947-27.705-7.421-55.411-31.169-71.737-11.873-7.916-26.715-12.369-42.052-12.369zM513.495 152.496c8.905 0 17.316-1.979 25.232-5.937l190.969-100.432c0.989-0.495 2.474-0.99 3.958-0.99 1.979 0 3.463 0.495 4.947 1.484s2.474 2.968 2.474 4.453l-37.105 217.19c-2.968 16.821 2.969 34.137 14.842 46.011l160.295 156.337c0.989 0.989 1.979 2.474 1.484 4.453-0.495 1.484-2.968 3.463-5.937 3.958L655.98 510.686c-17.316 2.474-32.653 13.358-40.074 29.19l-94.99 192.948c-0.989 1.979-3.958 3.463-6.926 3.463s-5.937-1.484-6.926-3.958l-94.99-192.948c-7.916-15.832-22.758-26.221-40.074-29.19l-219.664-31.663c-2.968-0.495-5.442-2.474-5.937-3.958-0.495-1.484 0-2.968 1.484-4.453l160.295-156.832c12.368-11.874 17.811-29.19 14.842-46.011l-37.105-216.695c-0.495-1.484 0.495-3.463 2.474-4.947 1.484-0.989 2.968-1.484 4.947-1.484 1.484 0 2.968 0.495 4.453 0.989l190.474 100.432c7.916 4.453 16.326 6.927 25.232 6.927z"  horiz-adv-x="1024" />

    


  </font>
</defs></svg>
